<svg width="106" height="27" viewBox="0 0 106 27" fill="none" xmlns="http://www.w3.org/2000/svg">
<path d="M18.3154 13.1797C17.8278 11.9933 17.1473 10.9478 16.2922 10.0721C15.436 9.19645 14.4258 8.49979 13.2904 8.00191C12.1457 7.50008 10.8961 7.24613 9.57564 7.24613C8.23878 7.24613 6.98031 7.54058 5.83627 8.12225C5.31608 8.3862 4.82982 8.69578 4.37937 9.04772V0H0V17.0727C0 18.4464 0.246873 19.7497 0.733131 20.9465C1.21916 22.1436 1.8987 23.2004 2.75351 24.086C3.60903 24.9743 4.6246 25.683 5.77262 26.1928C6.9293 26.706 8.19736 26.9669 9.54171 26.9669C10.8381 26.9669 12.0813 26.713 13.2368 26.2121C14.3865 25.7142 15.4044 25.0099 16.2623 24.1203C17.115 23.2358 17.7994 22.1816 18.2974 20.9866C18.7968 19.7855 19.0497 18.469 19.0497 17.0729C19.0497 15.678 18.8033 14.3684 18.3154 13.1797ZM9.54171 22.7453C8.87012 22.7453 8.24978 22.6059 7.64558 22.3201C7.036 22.0312 6.49054 21.625 6.02464 21.1125C5.55196 20.5941 5.17147 19.9815 4.89417 19.2909C4.61945 18.6082 4.47975 17.8617 4.47975 17.0727C4.47975 16.2857 4.61899 15.5462 4.893 14.8759C5.17053 14.1955 5.54564 13.5917 6.0092 13.0822C6.46316 12.5818 7.00277 12.1819 7.61212 11.8932C8.20789 11.6109 8.85702 11.4682 9.54194 11.4682C10.2269 11.4682 10.8758 11.6109 11.4715 11.8932C12.0834 12.1826 12.6242 12.5794 13.0798 13.0713C13.5368 13.5647 13.9035 14.162 14.1684 14.8458C14.4347 15.5329 14.5697 16.2827 14.5697 17.0729C14.5697 17.8873 14.4347 18.648 14.1684 19.334C13.9026 20.0201 13.5347 20.6246 13.0747 21.1316C12.6198 21.6323 12.0806 22.0321 11.4715 22.3205C10.8758 22.6022 10.2266 22.7453 9.54171 22.7453Z" fill="white"/>
<path d="M34.0388 20.001C33.6296 20.8154 33.0675 21.4413 32.3203 21.9143C31.5802 22.3836 30.7342 22.611 29.735 22.611C29.0457 22.611 28.3933 22.472 27.7954 22.199C27.1865 21.9206 26.6485 21.5333 26.1955 21.0454C25.7385 20.5538 25.3721 19.9628 25.1067 19.2894C24.8416 18.6177 24.7073 17.8882 24.7073 17.1229C24.7073 16.3573 24.8416 15.6283 25.1067 14.9566C25.373 14.2809 25.7413 13.6829 26.2018 13.178C26.6558 12.6787 27.1949 12.2807 27.8045 11.9928C28.4015 11.7112 29.0506 11.568 29.7353 11.568C30.7321 11.568 31.5713 11.7952 32.2995 12.2619C33.0417 12.7381 33.6127 13.3694 34.0461 14.1903L34.2721 14.6212H38.9482L38.5946 13.5642C38.2776 12.618 37.8304 11.7477 37.2674 10.978C36.7037 10.2096 36.0325 9.53762 35.2713 8.98178C34.5106 8.42431 33.6525 7.98649 32.7219 7.67784C31.7889 7.3685 30.7836 7.21185 29.735 7.21185C28.4321 7.21185 27.1844 7.47976 26.0261 8.0072C24.8813 8.52929 23.8679 9.2441 23.014 10.1319C22.1608 11.018 21.4761 12.0738 20.9796 13.2704C20.4798 14.472 20.2266 15.7677 20.2266 17.1227C20.2266 18.479 20.4798 19.7706 20.9801 20.9611C21.4775 22.1461 22.1615 23.1957 23.0135 24.0799C23.8693 24.9691 24.8844 25.679 26.0329 26.1908C27.1896 26.705 28.4356 26.9659 29.7348 26.9659C31.86 26.9659 33.7302 26.3759 35.2938 25.2128C36.8487 24.0557 37.9593 22.5081 38.5942 20.6139L38.9477 19.5573H34.2609L34.0388 20.001Z" fill="white"/>
<path d="M47.8127 22.2763C47.3414 22.2949 46.8863 22.2612 46.456 22.1746C46.0776 22.0973 45.7591 21.9584 45.4832 21.7503C45.2225 21.5538 45.019 21.2803 44.8598 20.914C44.6909 20.5262 44.6057 20.0011 44.6057 19.3542V0H40.1255V19.455C40.1255 20.6505 40.3176 21.7279 40.696 22.6578C41.083 23.6082 41.6357 24.408 42.3385 25.0334C43.0454 25.6651 43.8927 26.1141 44.8563 26.369C45.4842 26.5359 46.159 26.6199 46.8636 26.6199C47.2099 26.6199 47.5705 26.5999 47.9356 26.5589L48.653 26.4798V22.2416L47.8127 22.2763Z" fill="white"/>
<path d="M67.7126 13.311C67.228 12.1153 66.5562 11.0539 65.717 10.1573C64.8725 9.2539 63.8551 8.53048 62.6949 8.00699C61.5258 7.47955 60.2502 7.21234 58.9042 7.21234C57.5566 7.21234 56.2865 7.48025 55.1281 8.00769C53.9808 8.53141 52.9664 9.25297 52.1116 10.1531C51.2596 11.0504 50.581 12.1132 50.0952 13.311C49.6089 14.5097 49.3623 15.8041 49.3623 17.1564C49.3623 18.5123 49.6099 19.7967 50.0975 20.9744C50.5833 22.148 51.2617 23.198 52.1116 24.0937C52.9678 24.9961 53.9855 25.7125 55.1347 26.2244C56.2911 26.7395 57.5594 27 58.904 27C60.2474 27 61.5202 26.7395 62.6876 26.2251C63.8511 25.713 64.8702 24.994 65.7168 24.089C66.5552 23.1941 67.2261 22.1462 67.711 20.9742C68.1982 19.7962 68.4457 18.512 68.4457 17.1562C68.446 15.8041 68.1991 14.5099 67.7126 13.311ZM58.8876 11.5685C59.584 11.5685 60.2172 11.7075 60.824 11.9944C61.4371 12.2838 61.9863 12.6858 62.4555 13.1897C62.9237 13.6936 63.297 14.296 63.5635 14.9801C63.8305 15.6681 63.9667 16.4062 63.9667 17.1732C63.9667 17.9383 63.8319 18.6629 63.5668 19.3251C63.3002 19.9891 62.9286 20.5752 62.4609 21.0675C61.9924 21.5603 61.4448 21.952 60.8334 22.2313C60.2243 22.5086 59.5875 22.644 58.8876 22.644C58.1962 22.644 57.5407 22.5051 56.9403 22.2311C56.3314 21.9532 55.7918 21.564 55.3362 21.0734C54.8764 20.5794 54.5087 19.9912 54.241 19.3248C53.9768 18.6654 53.843 17.9418 53.843 17.173C53.843 16.4027 53.978 15.6649 54.2448 14.9803C54.5125 14.293 54.8815 13.6885 55.3418 13.1832C55.7986 12.6823 56.3398 12.2824 56.9499 11.9938C57.548 11.7116 58.1997 11.5685 58.8876 11.5685Z" fill="white"/>
<path d="M81.2598 7.68188V18.9513C81.2598 20.0483 80.9453 20.9179 80.2992 21.609C79.6691 22.2836 78.8185 22.6113 77.6983 22.6113C76.5758 22.6113 75.7186 22.2819 75.0775 21.605C74.4223 20.9147 74.1047 20.0469 74.1047 18.9516V7.68188H69.624V18.9513C69.624 20.1491 69.8323 21.2522 70.243 22.2295C70.6562 23.213 71.2344 24.0658 71.961 24.762C72.6876 25.4598 73.5543 26.008 74.5383 26.3918C75.5172 26.7735 76.5742 26.967 77.6824 26.967C78.7897 26.967 79.8471 26.7735 80.8269 26.3918C81.8102 26.0075 82.6767 25.4589 83.4017 24.7632C84.1306 24.0646 84.709 23.2123 85.1216 22.2305C85.5323 21.2531 85.7405 20.15 85.7405 18.9513V7.68188H81.2598Z" fill="white"/>
<path d="M101.621 0V9.05051C101.169 8.69717 100.68 8.38667 100.157 8.12248C99.0103 7.54081 97.7494 7.24636 96.4112 7.24636C95.112 7.24636 93.8662 7.49984 92.7081 8.00075C91.5568 8.49933 90.5386 9.19622 89.6806 10.0716C88.8227 10.9478 88.1408 11.9933 87.6527 13.1793C87.1646 14.3673 86.9165 15.6768 86.9165 17.0727C86.9165 18.4695 87.1697 19.7864 87.6702 20.9868C88.1687 22.1806 88.8545 23.2346 89.7089 24.12C90.5674 25.0096 91.5872 25.7142 92.7401 26.2128C93.8968 26.7128 95.1536 26.9667 96.4755 26.9667C97.8215 26.9667 99.0917 26.7058 100.251 26.1925C101.403 25.6823 102.415 24.9719 103.262 24.0828C104.105 23.1971 104.779 22.1422 105.265 20.9468C105.753 19.7494 106 18.4455 106 17.0724V0H101.621ZM101.52 17.0724C101.52 17.8606 101.38 18.6066 101.105 19.2907C100.827 19.9831 100.447 20.596 99.975 21.113C99.5094 21.6248 98.9642 22.031 98.3548 22.3201C97.1424 22.8931 95.7019 22.875 94.5286 22.3201C93.9172 22.0305 93.3703 21.6281 92.9028 21.1248C92.435 20.6207 92.0627 20.0178 91.7976 19.3333C91.5317 18.6482 91.397 17.8878 91.397 17.0724C91.397 16.281 91.5317 15.5318 91.7985 14.8454C92.0627 14.1636 92.4327 13.5691 92.8972 13.0768C93.3647 12.5824 93.9148 12.1842 94.5286 11.8928C95.1246 11.6104 95.7738 11.4677 96.458 11.4677C97.1431 11.4677 97.7923 11.6104 98.3883 11.8928C98.9962 12.1809 99.5356 12.5813 99.991 13.0815C100.453 13.591 100.829 14.195 101.107 14.8759C101.38 15.5469 101.52 16.2864 101.52 17.0724Z" fill="white"/>
</svg>
